{
"rows":[
    {"store": "Macy's"},
    {"store": "Nike"},
    {"store": "TMobile"},
    {"store": "Verizon"},
    {"store": "ATT"},
    {"store": "Safeway"},
    {"store": "Adidas"}
],
"columns":[
    {"time":"1a"},
    {"time":"2a"},
    {"time":"3a"},
    {"time":"4a"},
    {"time":"5a"},
    {"time":"6a"},
    {"time":"7a"},
    {"time":"8a"},
    {"time":"9a"},
    {"time":"10a"},
    {"time":"11a"},
    {"time":"12a"},
    {"time":"1p"},
    {"time":"2p"},
    {"time":"3p"},
    {"time":"4p"},
    {"time":"5p"},
    {"time":"6p"},
    {"time":"7p"},
    {"time":"8p"},
    {"time":"9p"},
    {"time":"10p"},
    {"time":"11p"},
    {"time":"12p"}
],
"values": [{"store":1,"time":1,"value":16},
    {"store":1,"time":2,"value":20},
    {"store":1,"time":3,"value":0},
    {"store":1,"time":4,"value":4},
    {"store":1,"time":5,"value":30},
    {"store":1,"time":6,"value":2},
    {"store":1,"time":7,"value":0},
    {"store":1,"time":8,"value":9},
    {"store":1,"time":9,"value":25},
    {"store":1,"time":10,"value":49},
    {"store":1,"time":11,"value":57},
    {"store":1,"time":12,"value":61},
    {"store":1,"time":13,"value":37},
    {"store":1,"time":14,"value":66},
    {"store":1,"time":15,"value":70},
    {"store":1,"time":16,"value":55},
    {"store":1,"time":17,"value":51},
    {"store":1,"time":18,"value":55},
    {"store":1,"time":19,"value":17},
    {"store":1,"time":20,"value":20},
    {"store":1,"time":21,"value":9},
    {"store":1,"time":22,"value":4},
    {"store":1,"time":23,"value":0},
    {"store":1,"time":24,"value":12},
    {"store":2,"time":1,"value":26},
    {"store":2,"time":2,"value":22},
    {"store":2,"time":3,"value":4},
    {"store":2,"time":4,"value":5},
    {"store":2,"time":5,"value":60},
    {"store":2,"time":6,"value":32},
    {"store":2,"time":7,"value":44},
    {"store":2,"time":8,"value":11},
    {"store":2,"time":9,"value":28},
    {"store":2,"time":10,"value":49},
    {"store":2,"time":11,"value":51},
    {"store":2,"time":12,"value":47},
    {"store":2,"time":13,"value":38},
    {"store":2,"time":14,"value":65},
    {"store":2,"time":15,"value":60},
    {"store":2,"time":16,"value":50},
    {"store":2,"time":17,"value":65},
    {"store":2,"time":18,"value":50},
    {"store":2,"time":19,"value":22},
    {"store":2,"time":20,"value":11},
    {"store":2,"time":21,"value":12},
    {"store":2,"time":22,"value":9},
    {"store":2,"time":23,"value":0},
    {"store":2,"time":24,"value":13},
    {"store":3,"time":1,"value":5},
    {"store":3,"time":2,"value":8},
    {"store":3,"time":3,"value":8},
    {"store":3,"time":4,"value":0},
    {"store":3,"time":5,"value":0},
    {"store":3,"time":6,"value":2},
    {"store":3,"time":7,"value":5},
    {"store":3,"time":8,"value":12},
    {"store":3,"time":9,"value":34},
    {"store":3,"time":10,"value":43},
    {"store":3,"time":11,"value":54},
    {"store":3,"time":12,"value":44},
    {"store":3,"time":13,"value":40},{"store":3,"time":14,"value":48},{"store":3,"time":15,"value":54},{"store":3,"time":16,"value":59},{"store":3,"time":17,"value":60},{"store":3,"time":18,"value":51},{"store":3,"time":19,"value":21},{"store":3,"time":20,"value":16},{"store":3,"time":21,"value":9},{"store":3,"time":22,"value":5},{"store":3,"time":23,"value":4},{"store":3,"time":24,"value":7},{"store":4,"time":1,"value":0},{"store":4,"time":2,"value":0},{"store":4,"time":3,"value":0},{"store":4,"time":4,"value":0},{"store":4,"time":5,"value":0},{"store":4,"time":6,"value":2},{"store":4,"time":7,"value":4},{"store":4,"time":8,"value":13},{"store":4,"time":9,"value":26},{"store":4,"time":10,"value":58},{"store":4,"time":11,"value":61},{"store":4,"time":12,"value":59},{"store":4,"time":13,"value":53},{"store":4,"time":14,"value":54},{"store":4,"time":15,"value":64},{"store":4,"time":16,"value":55},{"store":4,"time":17,"value":52},{"store":4,"time":18,"value":53},{"store":4,"time":19,"value":18},{"store":4,"time":20,"value":3},{"store":4,"time":21,"value":9},{"store":4,"time":22,"value":12},{"store":4,"time":23,"value":2},{"store":4,"time":24,"value":8},{"store":5,"time":1,"value":2},{"store":5,"time":2,"value":0},{"store":5,"time":3,"value":8},{"store":5,"time":4,"value":2},{"store":5,"time":5,"value":0},{"store":5,"time":6,"value":2},{"store":5,"time":7,"value":4},{"store":5,"time":8,"value":14},{"store":5,"time":9,"value":31},{"store":5,"time":10,"value":48},{"store":5,"time":11,"value":46},{"store":5,"time":12,"value":50},{"store":5,"time":13,"value":66},{"store":5,"time":14,"value":54},{"store":5,"time":15,"value":56},{"store":5,"time":16,"value":67},{"store":5,"time":17,"value":54},{"store":5,"time":18,"value":23},{"store":5,"time":19,"value":14},{"store":5,"time":20,"value":6},{"store":5,"time":21,"value":8},{"store":5,"time":22,"value":7},{"store":5,"time":23,"value":0},{"store":5,"time":24,"value":8},{"store":6,"time":1,"value":2},{"store":6,"time":2,"value":0},{"store":6,"time":3,"value":2},{"store":6,"time":4,"value":0},{"store":6,"time":5,"value":0},{"store":6,"time":6,"value":0},{"store":6,"time":7,"value":4},{"store":6,"time":8,"value":8},{"store":6,"time":9,"value":8},{"store":6,"time":10,"value":6},{"store":6,"time":11,"value":14},{"store":6,"time":12,"value":12},{"store":6,"time":13,"value":9},{"store":6,"time":14,"value":14},{"store":6,"time":15,"value":0},{"store":6,"time":16,"value":4},{"store":6,"time":17,"value":7},{"store":6,"time":18,"value":6},{"store":6,"time":19,"value":0},{"store":6,"time":20,"value":0},{"store":6,"time":21,"value":0},{"store":6,"time":22,"value":0},{"store":6,"time":23,"value":0},{"store":6,"time":24,"value":0},{"store":7,"time":1,"value":7},{"store":7,"time":2,"value":6},{"store":7,"time":3,"value":0},{"store":7,"time":4,"value":0},{"store":7,"time":5,"value":0},{"store":7,"time":6,"value":0},{"store":7,"time":7,"value":0},{"store":7,"time":8,"value":0},{"store":7,"time":9,"value":0},{"store":7,"time":10,"value":0},{"store":7,"time":11,"value":2},{"store":7,"time":12,"value":2},{"store":7,"time":13,"value":5},{"store":7,"time":14,"value":6},{"store":7,"time":15,"value":0},{"store":7,"time":16,"value":4},{"store":7,"time":17,"value":0},{"store":7,"time":18,"value":2},{"store":7,"time":19,"value":10},{"store":7,"time":20,"value":7},{"store":7,"time":21,"value":0},{"store":7,"time":22,"value":19},{"store":7,"time":23,"value":9},{"store":7,"time":24,"value":4}]
}